{
    "app-id" : "org.gnome.BoxesDevel",
    "runtime" : "org.gnome.Platform",
    "runtime-version" : "master",
    "sdk" : "org.gnome.Sdk",
    "sdk-extensions" : [
        "org.freedesktop.Sdk.Extension.vala"
    ],
    "command" : "gnome-boxes",
    "finish-args" : [
        "--share=network",
        "--share=ipc",
        "--socket=fallback-x11",
        "--device=dri",
        "--device=kvm",
        "--socket=wayland",
        "--socket=session-bus",
        "--own-name=org.qemu",
        "--filesystem=xdg-run/gvfsd"
    ],
    "build-options" : {
        "append-path" : "/usr/lib/sdk/vala/bin",
        "prepend-ld-library-path" : "/usr/lib/sdk/vala/lib"
    },
    "cleanup" : [
        "/include",
        "/lib/pkgconfig",
        "/man",
        "/share/doc",
        "/share/gtk-doc",
        "/share/man",
        "/share/pkgconfig",
        "/share/vala",
        "*.la",
        "*.a"
    ],
    "modules" : [
        {
            "name" : "intltool",
            "cleanup" : [ "*" ],
            "sources" : [
                {
                    "type" : "archive",
                    "url" : "https://launchpad.net/intltool/trunk/0.51.0/+download/intltool-0.51.0.tar.gz",
                    "sha256" : "67c74d94196b153b774ab9f89b2fa6c6ba79352407037c8c14d5aeb334e959cd"
                }
            ]
        },
        {
            "name": "libvirt-glib",
            "buildsystem": "meson",
            "config-opts": [
                "-Ddocs=disabled",
                "-Drpath=disabled",
                "-Dtests=disabled",
                "-Dintrospection=enabled",
                "-Dvapi=enabled"
            ],
            "sources": [
                {
                    "type": "git",
                    "url": "https://gitlab.com/libvirt/libvirt-glib",
                    "branch": "master"
                }
            ],
            "modules": [
                {
                    "name": "libnl",
                    "sources": [
                        {
                            "type": "archive",
                            "url": "https://github.com/thom311/libnl/releases/download/libnl3_5_0/libnl-3.5.0.tar.gz",
                            "sha256": "352133ec9545da76f77e70ccb48c9d7e5324d67f6474744647a7ed382b5e05fa"
                        }
                    ]
                },
                {
                    "name": "yajl",
                    "buildsystem": "cmake-ninja",
                    "builddir": true,
                    "config-opts": [
                        "-DCMAKE_BUILD_TYPE=Release"
                    ],
                    "sources": [
                        {
                            "type": "archive",
                            "url": "https://github.com/lloyd/yajl/archive/refs/tags/2.1.0.tar.gz",
                            "sha256" : "3fb73364a5a30efe615046d07e6db9d09fd2b41c763c5f7d3bfb121cd5c5ac5a"
                        }
                    ]
                },
                {
                    "name": "libtirpc",
                    "config-opts": [
                        "--disable-gssapi",
                        "--libdir=/app/lib"
                    ],
                    "sources": [
                        {
                            "type": "archive",
                            "url": "https://downloads.sourceforge.net/sourceforge/libtirpc/libtirpc-1.3.2.tar.bz2",
                            "sha256": "e24eb88b8ce7db3b7ca6eb80115dd1284abc5ec32a8deccfed2224fc2532b9fd"
                        }
                    ]
                },
                {
                    "name": "rpcsvc-proto",
                    "buildsystem": "autotools",
                    "sources": [
                        {
                            "type": "archive",
                            "url": "https://github.com/thkukuk/rpcsvc-proto/archive/v1.4.1.tar.gz",
                            "sha256": "750f7e57b81407a25b707867e90d7ee80aeb53bf515b114fc218f3c78dc9a6e8"
                        }
                    ]
                },
                {
                    "name": "docutils",
                    "buildsystem": "simple",
                    "build-commands": [
                        "pip3 install --prefix=/app docutils-0.16-py2.py3-none-any.whl"
                    ],
                    "sources": [
                        {
                            "type": "file",
                            "url": "https://files.pythonhosted.org/packages/81/44/8a15e45ffa96e6cf82956dd8d7af9e666357e16b0d93b253903475ee947f/docutils-0.16-py2.py3-none-any.whl",
                            "sha256": "0c5b78adfbf7762415433f5515cd5c9e762339e23369dbe8000d84a4bf4ab3af"
                        }
                    ]
                },
                {
                    "name": "libvirt",
                    "builddir": true,
                    "buildsystem": "meson",
                    "build-options": {
                        "cflags": "-I/app/include/tirpc -ltirpc"
                    },
                    "config-opts": [
                        "-Daudit=disabled",
                        "-Dexpensive_tests=disabled",
                        "-Dgit_werror=disabled",
                        "-Ddocs=enabled",
                        "-Dtests=disabled",
                        "-Dapparmor=disabled",
                        "-Dbash_completion=disabled",
                        "-Dsbindir=/app/bin/",
                        "-Drpath=enabled",
                        "-Ddriver_qemu=enabled"
                    ],
                    "sources": [
                        {
                            "type": "archive",
                            "url": "https://libvirt.org/sources/libvirt-10.10.0.tar.xz",
                            "sha256": "e1bd7bd31b7c0d0ae073dec050bb5b0232b3e4adebdc58ea82fe8b366c765796"
                        },
                        {
                            "type": "patch",
                            "path": "flatpak/libvirt-use-monitor-in-xdg-runtime-dir.patch"
                        }
                    ],
                    "modules": [
                        {
                            "name": "json-c",
                            "buildsystem": "cmake",
                            "sources": [
                                {
                                    "type": "git",
                                     "url": "https://github.com/json-c/json-c"
                                }
                            ]
                        }
                    ]
                }
            ]
        },
        {
            "name": "virt-install",
            "buildsystem" : "meson",
            "config-opts": [
                "-Dtests=disabled"
            ],
            "sources" : [
                {
                    "type": "archive",
                    "url": "https://github.com/virt-manager/virt-manager/archive/v5.0.0.tar.gz",
                    "sha256": "8a26b818ddbd37c90f665aacbab4f747fb6aa8f7ff7e012c73d1fe4d9aad5dd2"
                }
            ],
            "modules": [
                {
                    "name": "libvirt-python",
                    "buildsystem": "simple",
                    "build-commands": [
                        "python3 setup.py build",
                        "python3 setup.py install --skip-build --prefix=/app --root=/ --optimize=1"
                    ],
                    "sources": [
                        {
                            "type": "archive",
                            "url": "https://libvirt.org/sources/python/libvirt-python-10.10.0.tar.gz",
                            "sha256": "8acf6dcfb33a03ed92f9440cb1a0b8d3fc53fb23bba2e76ceedeb8bfb5327557"
                        }
                    ]
                },
                {
                    "name": "python3-requests",
                    "buildsystem": "simple",
                    "build-commands": [
                       "pip3 install --verbose --exists-action=i --no-index --find-links=\"file://${PWD}\" --prefix=${FLATPAK_DEST} \"requests\" --no-build-isolation"
                     ],
                     "sources": [
                        {
                            "type": "file",
                            "url": "https://files.pythonhosted.org/packages/ce/d9/5f4c13cecde62396b0d3fe530a50ccea91e7dfc1ccf0e09c228841bb5ba8/urllib3-2.2.3-py3-none-any.whl",
                            "sha256": "ca899ca043dcb1bafa3e262d73aa25c465bfb49e0bd9dd5d59f1d0acba2f8fac"
                        },
                        {
                            "type": "file",
                            "url": "https://files.pythonhosted.org/packages/76/c6/c88e154df9c4e1a2a66ccf0005a88dfb2650c1dffb6f5ce603dfbd452ce3/idna-3.10-py3-none-any.whl",
                            "sha256": "946d195a0d259cbba61165e88e65941f16e9b36ea6ddb97f00452bae8b1287d3"
                        },
                        {
                            "type": "file",
                            "url": "https://files.pythonhosted.org/packages/bf/9b/08c0432272d77b04803958a4598a51e2a4b51c06640af8b8f0f908c18bf2/charset_normalizer-3.4.0-py3-none-any.whl",
                            "sha256": "fe9f97feb71aa9896b81973a7bbada8c49501dc73e58a10fcef6663af95e5079"
                        },
                        {
                            "type": "file",
                            "url": "https://files.pythonhosted.org/packages/12/90/3c9ff0512038035f59d279fddeb79f5f1eccd8859f06d6163c58798b9487/certifi-2024.8.30-py3-none-any.whl",
                            "sha256": "922820b53db7a7257ffbda3f597266d435245903d80737e34f8a45ff3e3230d8"
                        },
                        {
                            "type": "file",
                            "url": "https://files.pythonhosted.org/packages/f9/9b/335f9764261e915ed497fcdeb11df5dfd6f7bf257d4a6a2a686d80da4d54/requests-2.32.3-py3-none-any.whl",
                            "sha256": "70761cfe03c773ceb22aa2f671b4757976145175cdfca038c02654d061d6dcc6"
                        }
                    ]
                }
            ]
        },
        {
            "name": "qemu",
            "config-opts": [
                "--disable-user",
                "--enable-kvm",
                "--enable-opengl",
                "--enable-virglrenderer",
                "--enable-slirp",
                "--disable-gtk",
                "--disable-sdl",
                "--disable-vnc",
                "--python=/bin/python3",
                "--target-list=x86_64-softmmu,i386-softmmu,aarch64-softmmu"
            ],
            "sources": [
                {
                    "type": "archive",
                    "url": "https://download.qemu.org/qemu-8.1.1.tar.xz",
                    "sha256": "37ce2ef5e500fb752f681117c68b45118303ea49a7e26bd54080ced54fab7def"
                }
            ],
            "modules": [
                {
                    "name": "slirp",
                    "buildsystem": "meson",
                    "sources": [
                        {
                            "type": "git",
                            "url": "https://gitlab.com/qemu-project/libslirp",
                            "tag": "v4.7.0"
                        }
                    ]
                },
                {
                    "name": "virglrenderer",
                    "buildsystem": "meson",
                    "sources": [
                        {
                            "type": "archive",
                            "url": "https://gitlab.freedesktop.org/virgl/virglrenderer/-/archive/1.0.0/virglrenderer-1.0.0.tar.gz",
                            "sha256": "130c417bfcc8d35063245322609fd310e981a33e2a6c73beac7fb98c4beed8e6"
                        }
                    ]
                },
                                {
                    "name": "libusb",
                    "config-opts": [
                        "--disable-udev"
                    ],
                    "sources": [
                        {
                            "type": "archive",
                            "url": "https://github.com/libusb/libusb/releases/download/v1.0.24/libusb-1.0.24.tar.bz2",
                            "sha256": "7efd2685f7b327326dcfb85cee426d9b871fd70e22caa15bb68d595ce2a2b12a"
                        }
                    ]
                },
                {
                    "name": "usbredir",
                    "buildsystem" : "meson",
                    "config-opts": [
                        "-Dtools=disabled"
                    ],
                    "sources": [
                        {
                            "type": "archive",
                            "url": "https://spice-space.org/download/usbredir/usbredir-0.13.0.tar.xz",
                            "sha256": "4ba6faa02c0ae6deeb4c53883d66ab54b3a5899bead42ce4ded9568b9a7dc46e"
                        }
                    ]
                }
            ]
        },
        {
            "name": "libosinfo",
            "buildsystem": "meson",
            "config-opts": [
                "-Dwith-pci-ids-path=/app/share/hwdata/pci.ids",
                "-Dwith-usb-ids-path=/app/share/hwdata/usb.ids"
            ],
            "post-install": [
                "install -Dm644 ../pci.ids /app/share/hwdata/pci.ids",
                "install -Dm644 ../usb.ids /app/share/hwdata/usb.ids"
            ],
            "sources": [
                {
                    "type": "archive",
                    "url": "https://releases.pagure.org/libosinfo/libosinfo-1.11.0.tar.xz",
                    "sha256": "1bf96eec9e1460f3d1a713163cca1ff0d480a3490b50899292f14548b3a96b60"
                },
                {
                    "type": "file",
                    "path": "flatpak/pci.ids"
                },
                {
                    "type": "file",
                    "path": "flatpak/usb.ids"
                },
                {
                    "type" : "patch",
                    "path" : "flatpak/libosinfo-osinfo-db-loader-workaround.patch"
                }
            ],
            "modules": [
                {
                    "name": "cdrkit",
                    "buildsystem": "cmake-ninja",
                    "sources": [
                        {
                            "type": "git",
                            "url": "https://github.com/Distrotech/cdrkit",
                            "commit": "7b4bb72389ea5ea3ecc94545036dcff4728ec38a"
                        },
                        {
                            "type": "patch",
                            "path": "flatpak/genisoimage-extern.patch"
                        },
                        {
                            "type": "patch",
                            "path": "flatpak/cdrkit-build-fix.patch"
                        }
                    ]
                },
                {
                    "name": "osinfo-db-tools",
                    "buildsystem": "meson",
                    "sources": [
                        {
                            "type": "archive",
                            "url": "https://releases.pagure.org/libosinfo/osinfo-db-tools-1.11.0.tar.xz",
                            "sha256": "8ba6d31bb5ef07056e38879e070671afbcfec0eb41a87f9950450bbb831b0a1d"
                        },
                        {
                            "type": "patch",
                            "path": "flatpak/meson-move-FORTIFY_SOURCE-setting-to-header-file.patch"
                        },
                        {
                            "type": "patch",
                            "path": "flatpak/make-xmlError-structs-constant.patch"
                        }
                    ]
                },
                {
                    "name": "osinfo-db",
                    "buildsystem": "simple",
                    "builddir": true,
                    "build-commands": [
                        "make",
                        "osinfo-db-import --dir /app/share/osinfo/ osinfo-db-*.tar.xz"
                    ],
                    "sources": [
                        {
                            "type": "git",
                            "url": "https://gitlab.com/libosinfo/osinfo-db.git",
                            "commit": "f4b09dc99c170f4df85c03bf3f8ea65752deb2ee"
                        }
                    ]
                }
            ]
        },
        {
            "name": "libmks",
            "buildsystem": "meson",
            "config-opts": [
                "-Dintrospection=enabled",
                "-Dvapi=true",
                "-Dtracing=true"
            ],
            "sources": [
                {
                    "type": "git",
                    "url": "https://gitlab.gnome.org/gnome/libmks",
                    "branch": "main"
                }
            ]
        },
        {
            "name" : "gnome-boxes",
            "builddir" : true,
            "buildsystem" : "meson",
            "config-opts": [
                "-Dprofile=devel"
            ],
            "sources" : [
                {
                    "type" : "git",
                    "url" : "file:///var/home/feborges/Projects/gnome-boxes-ng"
                }
            ]
        }
    ]
}
